<?xml version="1.0" encoding="UTF-8"?>
<model ref="r:74fe5ff8-bc12-40d0-9667-19414a6b5cab(model)">
  <persistence version="9" />
  <languages>
    <use id="8f241757-0a4b-4332-b1b7-5a58efeb6822" name="your.domain.heatmap2" version="-1" />
    <devkit ref="8a3636fa-c6ec-4cb0-bc2a-b7143f2a4937(org.campagnelab.metaR)" />
  </languages>
  <imports>
    <import index="9nc5" ref="r:d1a256e6-591a-459f-809c-7fc9df45e4d5(org.campagnelab.mps.XChart.types.roots)" implicit="true" />
  </imports>
  <registry>
    <language id="8f241757-0a4b-4332-b1b7-5a58efeb6822" name="your.domain.heatmap2">
      <concept id="5601565895434910072" name="your.domain.heatmap2.structure.Heatmap2" flags="ng" index="2EUZJS">
        <child id="5601565895434949773" name="table" index="2EULod" />
        <child id="5601565895434954450" name="plot" index="2EUMhi" />
      </concept>
    </language>
    <language id="5d6bde84-4ce4-4eb5-a37e-25a5edd55129" name="org.campagnelab.metar.tables">
      <concept id="4451133196879828915" name="org.campagnelab.metar.tables.structure.TableRef" flags="ng" index="afgQW">
        <reference id="4451133196879830023" name="table" index="afgo8" />
      </concept>
      <concept id="3929971219788952127" name="org.campagnelab.metar.tables.structure.Transform" flags="ng" index="2jzm8Z">
        <child id="3929971219790215784" name="inputTable" index="2j$aDC" />
        <child id="3929971219790215785" name="outputTable" index="2j$aDD" />
        <child id="3929971219789675273" name="operations" index="2jA6G9" />
      </concept>
      <concept id="3929971219789681021" name="org.campagnelab.metar.tables.structure.DropColumnOperation" flags="ng" index="2jA85X">
        <child id="3929971219789681022" name="col" index="2jA85Y" />
      </concept>
      <concept id="6106414325997850090" name="org.campagnelab.metar.tables.structure.FutureTableCreator" flags="ng" index="2$MLEj">
        <property id="9080041854829670092" name="inputChanged" index="8NYsT" />
      </concept>
      <concept id="8962032619593737384" name="org.campagnelab.metar.tables.structure.Statement" flags="ng" index="S1EQ7">
        <property id="8962032619593737385" name="id" index="S1EQ6" />
      </concept>
      <concept id="8962032619593737380" name="org.campagnelab.metar.tables.structure.Analysis" flags="ng" index="S1EQb">
        <property id="2742007948298959018" name="trycatch_enabled" index="2BDq$p" />
        <child id="8962032619593737383" name="statements" index="S1EQ8" />
      </concept>
      <concept id="8962032619593737377" name="org.campagnelab.metar.tables.structure.EmptyLine" flags="ng" index="S1EQe" />
      <concept id="8962032619582305406" name="org.campagnelab.metar.tables.structure.StatementList" flags="ng" index="ZXjPh">
        <child id="8962032619582305407" name="transformations" index="ZXjPg" />
      </concept>
      <concept id="8081253674584199902" name="org.campagnelab.metar.tables.structure.OperationColumnRef" flags="ng" index="3_jNeS">
        <reference id="8081253674598527902" name="col" index="3AppbS" />
      </concept>
      <concept id="8459500803719374384" name="org.campagnelab.metar.tables.structure.Plot" flags="ng" index="1FHg$p">
        <property id="8962032619586498917" name="width" index="ZHjxa" />
        <property id="8962032619586499111" name="height" index="ZHjG8" />
      </concept>
      <concept id="3402264987261651661" name="org.campagnelab.metar.tables.structure.ImportTable" flags="ng" index="3MjoWR">
        <reference id="3402264987261692715" name="table" index="3Mj2Vh" />
        <child id="3402264987261651716" name="future" index="3MjoVY" />
      </concept>
      <concept id="3402264987259919045" name="org.campagnelab.metar.tables.structure.FutureTable" flags="ng" index="3MlLWZ">
        <reference id="3402264987259919103" name="table" index="3MlLW5" />
        <child id="4166618652720259019" name="myOwnTable" index="3WeD9t" />
      </concept>
      <concept id="3402264987258987827" name="org.campagnelab.metar.tables.structure.Table" flags="ng" index="3Mpm39">
        <property id="578023650349875540" name="pathToResolve" index="26T8KA" />
      </concept>
      <concept id="3402264987259789239" name="org.campagnelab.metar.tables.structure.FutureTableRef" flags="ng" index="3MqhDd">
        <reference id="3402264987259798245" name="table" index="3Mqssv" />
      </concept>
      <concept id="3402264987265829888" name="org.campagnelab.metar.tables.structure.ColumnGroupContainer" flags="ng" index="3MzsBU">
        <child id="3402264987265829889" name="groups" index="3MzsBV" />
      </concept>
      <concept id="3402264987265829895" name="org.campagnelab.metar.tables.structure.ColumnGroupReference" flags="ng" index="3MzsBX">
        <reference id="3402264987265829896" name="columnGroup" index="3MzsBM" />
      </concept>
      <concept id="3402264987265829883" name="org.campagnelab.metar.tables.structure.ColumnGroup" flags="ng" index="3MzsS1" />
      <concept id="3402264987265829804" name="org.campagnelab.metar.tables.structure.ColumnAnnotation" flags="ng" index="3MzsTm">
        <child id="3402264987265831176" name="groups" index="3MztjM" />
      </concept>
      <concept id="4166618652716705715" name="org.campagnelab.metar.tables.structure.Define" flags="ng" index="3WoeC_">
        <child id="4166618652716705717" name="object" index="3WoeCz" />
      </concept>
      <concept id="4166618652716277483" name="org.campagnelab.metar.tables.structure.SubSetTableRows" flags="ng" index="3WuldX">
        <child id="4451133196880140419" name="table" index="aecac" />
        <child id="4166618652718302640" name="destination" index="3W64wA" />
        <child id="4166618652716281037" name="rowFilter" index="3Wum5r" />
      </concept>
      <concept id="4166618652716485500" name="org.campagnelab.metar.tables.structure.ID" flags="ng" index="3Wv0rE">
        <property id="4166618652716485501" name="id" index="3Wv0rF" />
      </concept>
      <concept id="4166618652716485498" name="org.campagnelab.metar.tables.structure.FilterWithIDList" flags="ng" index="3Wv0rG">
        <reference id="4166618652716485503" name="set" index="3Wv0rD" />
      </concept>
      <concept id="4166618652716485499" name="org.campagnelab.metar.tables.structure.SetOfIds" flags="ng" index="3Wv0rH">
        <child id="4166618652716496208" name="ids" index="3Wv3z6" />
      </concept>
    </language>
    <language id="ceab5195-25ea-4f22-9b92-103b95ca8c0c" name="jetbrains.mps.lang.core">
      <concept id="1133920641626" name="jetbrains.mps.lang.core.structure.BaseConcept" flags="ng" index="2VYdi">
        <child id="5169995583184591170" name="smodelAttribute" index="lGtFl" />
      </concept>
      <concept id="1169194658468" name="jetbrains.mps.lang.core.structure.INamedConcept" flags="ng" index="TrEIO">
        <property id="1169194664001" name="name" index="TrG5h" />
      </concept>
    </language>
    <language id="5ec1cd3d-0a50-4049-a8fa-ae768d7baa25" name="org.campagnelab.mps.XChart">
      <concept id="2202909375770430359" name="org.campagnelab.mps.XChart.structure.DataFile" flags="ng" index="31JGnK">
        <property id="2202909375770434162" name="path" index="31JHgl" />
        <child id="2202909375770434164" name="columns" index="31JHgj" />
      </concept>
      <concept id="2202909375770430354" name="org.campagnelab.mps.XChart.structure.DelimitedFile" flags="ng" index="31JGnP">
        <property id="2202909375770898234" name="delimitor" index="31Cu5t" />
      </concept>
      <concept id="2202909375770434159" name="org.campagnelab.mps.XChart.structure.Column" flags="ng" index="31JHg8">
        <reference id="3328299660867197501" name="type" index="1YeEjl" />
      </concept>
    </language>
  </registry>
  <node concept="S1EQb" id="4QWKC3Bn2bv">
    <property role="2BDq$p" value="true" />
    <property role="TrG5h" value="Testing heatmap2" />
    <node concept="ZXjPh" id="4QWKC3Bn2bw" role="S1EQ8">
      <property role="S1EQ6" value="TKNDAROSMB" />
      <node concept="3MjoWR" id="4QWKC3Bn2eK" role="ZXjPg">
        <property role="S1EQ6" value="PRRQPQBQIJ" />
        <ref role="3Mj2Vh" node="4QWKC3Bn2eQ" resolve="SimulatedData.tsv" />
        <node concept="3MlLWZ" id="4QWKC3Bn2gj" role="3MjoVY">
          <property role="TrG5h" value="SimulatedData.tsv" />
          <ref role="3MlLW5" node="4QWKC3Bn2eQ" resolve="SimulatedData.tsv" />
        </node>
      </node>
      <node concept="3WoeC_" id="7c9ftft7Ssk" role="ZXjPg">
        <property role="S1EQ6" value="PKVQBGSVNA" />
        <node concept="3Wv0rH" id="7c9ftft7SsT" role="3WoeCz">
          <property role="TrG5h" value="RowIds" />
          <node concept="3Wv0rE" id="7c9ftft7SsW" role="3Wv3z6">
            <property role="3Wv0rF" value="gene_1" />
          </node>
          <node concept="3Wv0rE" id="7c9ftft7SsY" role="3Wv3z6">
            <property role="3Wv0rF" value="gene_2" />
          </node>
          <node concept="3Wv0rE" id="7c9ftft7St1" role="3Wv3z6">
            <property role="3Wv0rF" value="gene_3" />
          </node>
        </node>
      </node>
      <node concept="3WuldX" id="7c9ftft7Sny" role="ZXjPg">
        <property role="S1EQ6" value="HEMOJEUWRF" />
        <property role="8NYsT" value="false" />
        <node concept="3MlLWZ" id="7c9ftft7Sn$" role="3W64wA">
          <property role="TrG5h" value="subset" />
          <ref role="3MlLW5" node="7c9ftft7Sn_" resolve="subset" />
          <node concept="3Mpm39" id="7c9ftft7Sn_" role="3WeD9t">
            <property role="31Cu5t" value="&#9;" />
            <property role="TrG5h" value="subset" />
            <node concept="31JHg8" id="7c9ftft84pu" role="31JHgj">
              <property role="TrG5h" value="gene" />
              <ref role="1YeEjl" to="9nc5:1ID5TXdv_9L" resolve="String" />
              <node concept="3MzsTm" id="7c9ftft84px" role="lGtFl">
                <node concept="3MzsBX" id="7c9ftft84py" role="3MztjM">
                  <ref role="3MzsBM" node="7c9ftft7YsF" resolve="ID" />
                </node>
              </node>
            </node>
            <node concept="31JHg8" id="7c9ftft84pz" role="31JHgj">
              <property role="TrG5h" value="sample_1_LPS" />
              <ref role="1YeEjl" to="9nc5:1ID5TXdv_7G" resolve="Numeric" />
            </node>
            <node concept="31JHg8" id="7c9ftft84p$" role="31JHgj">
              <property role="TrG5h" value="sample_2" />
              <ref role="1YeEjl" to="9nc5:1ID5TXdv_7G" resolve="Numeric" />
            </node>
            <node concept="31JHg8" id="7c9ftft84p_" role="31JHgj">
              <property role="TrG5h" value="sample_3_LPS" />
              <ref role="1YeEjl" to="9nc5:1ID5TXdv_7G" resolve="Numeric" />
            </node>
            <node concept="31JHg8" id="7c9ftft84pA" role="31JHgj">
              <property role="TrG5h" value="sample_4" />
              <ref role="1YeEjl" to="9nc5:1ID5TXdv_7G" resolve="Numeric" />
            </node>
            <node concept="31JHg8" id="7c9ftft84pB" role="31JHgj">
              <property role="TrG5h" value="sample_5_LPS" />
              <ref role="1YeEjl" to="9nc5:1ID5TXdv_7G" resolve="Numeric" />
            </node>
            <node concept="31JHg8" id="7c9ftft84pC" role="31JHgj">
              <property role="TrG5h" value="sample_6" />
              <ref role="1YeEjl" to="9nc5:1ID5TXdv_7G" resolve="Numeric" />
            </node>
            <node concept="31JHg8" id="7c9ftft84pD" role="31JHgj">
              <property role="TrG5h" value="sample_7_LPS" />
              <ref role="1YeEjl" to="9nc5:1ID5TXdv_7G" resolve="Numeric" />
            </node>
            <node concept="31JHg8" id="7c9ftft84pE" role="31JHgj">
              <property role="TrG5h" value="sample_8" />
              <ref role="1YeEjl" to="9nc5:1ID5TXdv_7G" resolve="Numeric" />
            </node>
            <node concept="31JHg8" id="7c9ftft84pF" role="31JHgj">
              <property role="TrG5h" value="sample_9_LPS" />
              <ref role="1YeEjl" to="9nc5:1ID5TXdv_7G" resolve="Numeric" />
            </node>
            <node concept="31JHg8" id="7c9ftft84pG" role="31JHgj">
              <property role="TrG5h" value="sample_10" />
              <ref role="1YeEjl" to="9nc5:1ID5TXdv_7G" resolve="Numeric" />
            </node>
            <node concept="31JHg8" id="7c9ftft84pH" role="31JHgj">
              <property role="TrG5h" value="sample_11_LPS" />
              <ref role="1YeEjl" to="9nc5:1ID5TXdv_7G" resolve="Numeric" />
            </node>
            <node concept="31JHg8" id="7c9ftft84pI" role="31JHgj">
              <property role="TrG5h" value="sample_12" />
              <ref role="1YeEjl" to="9nc5:1ID5TXdv_7G" resolve="Numeric" />
            </node>
            <node concept="31JHg8" id="7c9ftft84pJ" role="31JHgj">
              <property role="TrG5h" value="sample_13_LPS" />
              <ref role="1YeEjl" to="9nc5:1ID5TXdv_7G" resolve="Numeric" />
            </node>
            <node concept="31JHg8" id="7c9ftft84pK" role="31JHgj">
              <property role="TrG5h" value="sample_14" />
              <ref role="1YeEjl" to="9nc5:1ID5TXdv_7G" resolve="Numeric" />
            </node>
            <node concept="31JHg8" id="7c9ftft84pL" role="31JHgj">
              <property role="TrG5h" value="sample_15_LPS" />
              <ref role="1YeEjl" to="9nc5:1ID5TXdv_7G" resolve="Numeric" />
            </node>
            <node concept="31JHg8" id="7c9ftft84pM" role="31JHgj">
              <property role="TrG5h" value="sample_16" />
              <ref role="1YeEjl" to="9nc5:1ID5TXdv_7G" resolve="Numeric" />
            </node>
            <node concept="31JHg8" id="7c9ftft84pN" role="31JHgj">
              <property role="TrG5h" value="sample_17_LPS" />
              <ref role="1YeEjl" to="9nc5:1ID5TXdv_7G" resolve="Numeric" />
            </node>
            <node concept="31JHg8" id="7c9ftft84pO" role="31JHgj">
              <property role="TrG5h" value="sample_18" />
              <ref role="1YeEjl" to="9nc5:1ID5TXdv_7G" resolve="Numeric" />
            </node>
            <node concept="31JHg8" id="7c9ftft84pP" role="31JHgj">
              <property role="TrG5h" value="sample_19_LPS" />
              <ref role="1YeEjl" to="9nc5:1ID5TXdv_7G" resolve="Numeric" />
            </node>
            <node concept="31JHg8" id="7c9ftft84pQ" role="31JHgj">
              <property role="TrG5h" value="sample_20" />
              <ref role="1YeEjl" to="9nc5:1ID5TXdv_7G" resolve="Numeric" />
            </node>
          </node>
        </node>
        <node concept="afgQW" id="7c9ftft7Soj" role="aecac">
          <ref role="afgo8" node="4QWKC3Bn2eQ" resolve="SimulatedData.tsv" />
        </node>
        <node concept="3Wv0rG" id="7c9ftft7SpK" role="3Wum5r">
          <ref role="3Wv0rD" node="7c9ftft7SsT" resolve="RowIds" />
        </node>
      </node>
      <node concept="2jzm8Z" id="7c9ftft9Q0v" role="ZXjPg">
        <property role="S1EQ6" value="HKRUQHHOKS" />
        <property role="8NYsT" value="false" />
        <node concept="3MlLWZ" id="7c9ftft9Q0x" role="2j$aDD">
          <property role="TrG5h" value="reduced" />
          <ref role="3MlLW5" node="7c9ftft9Q0y" resolve="reduced" />
          <node concept="3Mpm39" id="7c9ftft9Q0y" role="3WeD9t">
            <property role="31Cu5t" value="&#9;" />
            <property role="TrG5h" value="reduced" />
            <node concept="31JHg8" id="7c9ftft9Qb2" role="31JHgj">
              <property role="TrG5h" value="sample_1_LPS" />
              <ref role="1YeEjl" to="9nc5:1ID5TXdv_7G" resolve="Numeric" />
            </node>
            <node concept="31JHg8" id="7c9ftft9Qb3" role="31JHgj">
              <property role="TrG5h" value="sample_2" />
              <ref role="1YeEjl" to="9nc5:1ID5TXdv_7G" resolve="Numeric" />
            </node>
            <node concept="31JHg8" id="7c9ftft9Qb4" role="31JHgj">
              <property role="TrG5h" value="sample_3_LPS" />
              <ref role="1YeEjl" to="9nc5:1ID5TXdv_7G" resolve="Numeric" />
            </node>
            <node concept="31JHg8" id="7c9ftft9Qb5" role="31JHgj">
              <property role="TrG5h" value="sample_4" />
              <ref role="1YeEjl" to="9nc5:1ID5TXdv_7G" resolve="Numeric" />
            </node>
            <node concept="31JHg8" id="7c9ftft9Qb6" role="31JHgj">
              <property role="TrG5h" value="sample_5_LPS" />
              <ref role="1YeEjl" to="9nc5:1ID5TXdv_7G" resolve="Numeric" />
            </node>
            <node concept="31JHg8" id="7c9ftft9Qb7" role="31JHgj">
              <property role="TrG5h" value="sample_6" />
              <ref role="1YeEjl" to="9nc5:1ID5TXdv_7G" resolve="Numeric" />
            </node>
            <node concept="31JHg8" id="7c9ftft9Qb8" role="31JHgj">
              <property role="TrG5h" value="sample_7_LPS" />
              <ref role="1YeEjl" to="9nc5:1ID5TXdv_7G" resolve="Numeric" />
            </node>
            <node concept="31JHg8" id="7c9ftft9Qb9" role="31JHgj">
              <property role="TrG5h" value="sample_8" />
              <ref role="1YeEjl" to="9nc5:1ID5TXdv_7G" resolve="Numeric" />
            </node>
            <node concept="31JHg8" id="7c9ftft9Qba" role="31JHgj">
              <property role="TrG5h" value="sample_9_LPS" />
              <ref role="1YeEjl" to="9nc5:1ID5TXdv_7G" resolve="Numeric" />
            </node>
            <node concept="31JHg8" id="7c9ftft9Qbb" role="31JHgj">
              <property role="TrG5h" value="sample_10" />
              <ref role="1YeEjl" to="9nc5:1ID5TXdv_7G" resolve="Numeric" />
            </node>
            <node concept="31JHg8" id="7c9ftft9Qbc" role="31JHgj">
              <property role="TrG5h" value="sample_11_LPS" />
              <ref role="1YeEjl" to="9nc5:1ID5TXdv_7G" resolve="Numeric" />
            </node>
            <node concept="31JHg8" id="7c9ftft9Qbd" role="31JHgj">
              <property role="TrG5h" value="sample_12" />
              <ref role="1YeEjl" to="9nc5:1ID5TXdv_7G" resolve="Numeric" />
            </node>
            <node concept="31JHg8" id="7c9ftft9Qbe" role="31JHgj">
              <property role="TrG5h" value="sample_13_LPS" />
              <ref role="1YeEjl" to="9nc5:1ID5TXdv_7G" resolve="Numeric" />
            </node>
            <node concept="31JHg8" id="7c9ftft9Qbf" role="31JHgj">
              <property role="TrG5h" value="sample_14" />
              <ref role="1YeEjl" to="9nc5:1ID5TXdv_7G" resolve="Numeric" />
            </node>
            <node concept="31JHg8" id="7c9ftft9Qbg" role="31JHgj">
              <property role="TrG5h" value="sample_15_LPS" />
              <ref role="1YeEjl" to="9nc5:1ID5TXdv_7G" resolve="Numeric" />
            </node>
            <node concept="31JHg8" id="7c9ftft9Qbh" role="31JHgj">
              <property role="TrG5h" value="sample_16" />
              <ref role="1YeEjl" to="9nc5:1ID5TXdv_7G" resolve="Numeric" />
            </node>
            <node concept="31JHg8" id="7c9ftft9Qbi" role="31JHgj">
              <property role="TrG5h" value="sample_17_LPS" />
              <ref role="1YeEjl" to="9nc5:1ID5TXdv_7G" resolve="Numeric" />
            </node>
            <node concept="31JHg8" id="7c9ftft9Qbj" role="31JHgj">
              <property role="TrG5h" value="sample_18" />
              <ref role="1YeEjl" to="9nc5:1ID5TXdv_7G" resolve="Numeric" />
            </node>
            <node concept="31JHg8" id="7c9ftft9Qbk" role="31JHgj">
              <property role="TrG5h" value="sample_19_LPS" />
              <ref role="1YeEjl" to="9nc5:1ID5TXdv_7G" resolve="Numeric" />
            </node>
            <node concept="31JHg8" id="7c9ftft9Qbl" role="31JHgj">
              <property role="TrG5h" value="sample_20" />
              <ref role="1YeEjl" to="9nc5:1ID5TXdv_7G" resolve="Numeric" />
            </node>
          </node>
        </node>
        <node concept="3MqhDd" id="7c9ftft9QaU" role="2j$aDC">
          <ref role="3Mqssv" node="7c9ftft7Sn$" resolve="subset" />
        </node>
        <node concept="2jA85X" id="7c9ftft9Q28" role="2jA6G9">
          <node concept="3_jNeS" id="7c9ftft9Q3C" role="2jA85Y">
            <ref role="3AppbS" node="7c9ftft84pu" resolve="gene" />
          </node>
        </node>
      </node>
      <node concept="S1EQe" id="7c9ftft9Q7r" role="ZXjPg">
        <property role="S1EQ6" value="REREUMGQRJ" />
      </node>
      <node concept="2EUZJS" id="4QWKC3Bn2e_" role="ZXjPg">
        <property role="S1EQ6" value="GAQCPKJKHD" />
        <node concept="1FHg$p" id="4QWKC3Bn2eA" role="2EUMhi">
          <property role="ZHjxa" value="500" />
          <property role="ZHjG8" value="500" />
          <property role="TrG5h" value="a plot" />
        </node>
        <node concept="afgQW" id="7c9ftft9Qd0" role="2EULod">
          <ref role="afgo8" node="7c9ftft9Q0y" resolve="reduced" />
        </node>
      </node>
    </node>
  </node>
  <node concept="3Mpm39" id="4QWKC3Bn2eQ">
    <property role="31Cu5t" value="&#9;" />
    <property role="31JHgl" value="/Users/fac2003/MPSProjects/git/metar/data/SimulatedData.tsv" />
    <property role="TrG5h" value="SimulatedData.tsv" />
    <property role="26T8KA" value="/Users/fac2003/MPSProjects/git/metar/data/SimulatedData.tsv" />
    <node concept="31JHg8" id="4QWKC3Bn2eT" role="31JHgj">
      <property role="TrG5h" value="gene" />
      <ref role="1YeEjl" to="9nc5:1ID5TXdv_9L" resolve="String" />
      <node concept="3MzsTm" id="7c9ftft7Ysx" role="lGtFl">
        <node concept="3MzsBX" id="7c9ftft7YsH" role="3MztjM">
          <ref role="3MzsBM" node="7c9ftft7YsF" resolve="ID" />
        </node>
      </node>
    </node>
    <node concept="31JHg8" id="4QWKC3Bn2eU" role="31JHgj">
      <property role="TrG5h" value="sample_1_LPS" />
      <ref role="1YeEjl" to="9nc5:1ID5TXdv_7G" resolve="Numeric" />
    </node>
    <node concept="31JHg8" id="4QWKC3Bn2eV" role="31JHgj">
      <property role="TrG5h" value="sample_2" />
      <ref role="1YeEjl" to="9nc5:1ID5TXdv_7G" resolve="Numeric" />
    </node>
    <node concept="31JHg8" id="4QWKC3Bn2eW" role="31JHgj">
      <property role="TrG5h" value="sample_3_LPS" />
      <ref role="1YeEjl" to="9nc5:1ID5TXdv_7G" resolve="Numeric" />
    </node>
    <node concept="31JHg8" id="4QWKC3Bn2eX" role="31JHgj">
      <property role="TrG5h" value="sample_4" />
      <ref role="1YeEjl" to="9nc5:1ID5TXdv_7G" resolve="Numeric" />
    </node>
    <node concept="31JHg8" id="4QWKC3Bn2eY" role="31JHgj">
      <property role="TrG5h" value="sample_5_LPS" />
      <ref role="1YeEjl" to="9nc5:1ID5TXdv_7G" resolve="Numeric" />
    </node>
    <node concept="31JHg8" id="4QWKC3Bn2eZ" role="31JHgj">
      <property role="TrG5h" value="sample_6" />
      <ref role="1YeEjl" to="9nc5:1ID5TXdv_7G" resolve="Numeric" />
    </node>
    <node concept="31JHg8" id="4QWKC3Bn2f0" role="31JHgj">
      <property role="TrG5h" value="sample_7_LPS" />
      <ref role="1YeEjl" to="9nc5:1ID5TXdv_7G" resolve="Numeric" />
    </node>
    <node concept="31JHg8" id="4QWKC3Bn2f1" role="31JHgj">
      <property role="TrG5h" value="sample_8" />
      <ref role="1YeEjl" to="9nc5:1ID5TXdv_7G" resolve="Numeric" />
    </node>
    <node concept="31JHg8" id="4QWKC3Bn2f2" role="31JHgj">
      <property role="TrG5h" value="sample_9_LPS" />
      <ref role="1YeEjl" to="9nc5:1ID5TXdv_7G" resolve="Numeric" />
    </node>
    <node concept="31JHg8" id="4QWKC3Bn2f3" role="31JHgj">
      <property role="TrG5h" value="sample_10" />
      <ref role="1YeEjl" to="9nc5:1ID5TXdv_7G" resolve="Numeric" />
    </node>
    <node concept="31JHg8" id="4QWKC3Bn2f4" role="31JHgj">
      <property role="TrG5h" value="sample_11_LPS" />
      <ref role="1YeEjl" to="9nc5:1ID5TXdv_7G" resolve="Numeric" />
    </node>
    <node concept="31JHg8" id="4QWKC3Bn2f5" role="31JHgj">
      <property role="TrG5h" value="sample_12" />
      <ref role="1YeEjl" to="9nc5:1ID5TXdv_7G" resolve="Numeric" />
    </node>
    <node concept="31JHg8" id="4QWKC3Bn2f6" role="31JHgj">
      <property role="TrG5h" value="sample_13_LPS" />
      <ref role="1YeEjl" to="9nc5:1ID5TXdv_7G" resolve="Numeric" />
    </node>
    <node concept="31JHg8" id="4QWKC3Bn2f7" role="31JHgj">
      <property role="TrG5h" value="sample_14" />
      <ref role="1YeEjl" to="9nc5:1ID5TXdv_7G" resolve="Numeric" />
    </node>
    <node concept="31JHg8" id="4QWKC3Bn2f8" role="31JHgj">
      <property role="TrG5h" value="sample_15_LPS" />
      <ref role="1YeEjl" to="9nc5:1ID5TXdv_7G" resolve="Numeric" />
    </node>
    <node concept="31JHg8" id="4QWKC3Bn2f9" role="31JHgj">
      <property role="TrG5h" value="sample_16" />
      <ref role="1YeEjl" to="9nc5:1ID5TXdv_7G" resolve="Numeric" />
    </node>
    <node concept="31JHg8" id="4QWKC3Bn2fa" role="31JHgj">
      <property role="TrG5h" value="sample_17_LPS" />
      <ref role="1YeEjl" to="9nc5:1ID5TXdv_7G" resolve="Numeric" />
    </node>
    <node concept="31JHg8" id="4QWKC3Bn2fb" role="31JHgj">
      <property role="TrG5h" value="sample_18" />
      <ref role="1YeEjl" to="9nc5:1ID5TXdv_7G" resolve="Numeric" />
    </node>
    <node concept="31JHg8" id="4QWKC3Bn2fc" role="31JHgj">
      <property role="TrG5h" value="sample_19_LPS" />
      <ref role="1YeEjl" to="9nc5:1ID5TXdv_7G" resolve="Numeric" />
    </node>
    <node concept="31JHg8" id="4QWKC3Bn2fd" role="31JHgj">
      <property role="TrG5h" value="sample_20" />
      <ref role="1YeEjl" to="9nc5:1ID5TXdv_7G" resolve="Numeric" />
    </node>
  </node>
  <node concept="3MzsBU" id="7c9ftft7YsC">
    <node concept="3MzsS1" id="7c9ftft7YsF" role="3MzsBV">
      <property role="TrG5h" value="ID" />
    </node>
  </node>
</model>

